SoundData150mm.csv

#Digilent WaveForms Oscilloscope Acquisition
#Device Name: Discovery3
#Serial Number: SN:210415BE893B
#Date Time: 2026-02-11 14:45:02.818.562.720
#Sample rate: 2.5e+07Hz
#Samples: 32768
#Trigger: Source: Wavegen C1 Condition: Rising
#Average: 100
#Channel 1: Range: 2 V/div Offset: 0 V Sample Mode: Average
#Channel 2: Range: 50 mV/div Offset: -1.5 V Sample Mode: Average
#Wavegen Channel 1: Running
#Mode: Simple
#Type: Pulse
#Frequency: 100 Hz
#Period: 10 ms
#Amplitude: 5 V
#Offset: 0 V
#Symmetry: 0.1 %
#Phase: 0 °
#Power Supplies: ON
#Positive Supply: ON
#Voltage: 3 V Readback: 3.002516391 V
#Negative Supply: OFF
#Voltage: -1 V

Time (s),Channel 1 (V),Channel 2 (V)
-0.00025536,0.02576343946996854,1.504551856846542
-0.00025532,0.02481989173159123,1.504481066466124
-0.0002552799999999999,0.023831413148532,1.504550283726977
-0.0002552399999999999,0.02531413102312221,1.504513315417204
-0.0002552,0.02461320984604193,1.504648603699781
-0.00025516,0.02469408536647425,1.504543991248718
-0.00025512,0.0254129788814284,1.50460612947153
-0.00025508,0.02381344081065834,1.504610062270442
-0.0002550399999999999,0.02319339515401029,1.504548710607413
-0.000255,0.02472104387328504,1.504595117634576
-0.00025496,0.02553878524654535,1.504555789645454
-0.00025492,0.0251433938133206,1.504517248216115
-0.00025488,0.0260959277206331,1.504566014922626
-0.0002548399999999999,0.02481090556265322,1.504565228362843
-0.0002548,0.02421781841281714,1.504580172998709
-0.00025476,0.02512542147544674,1.504526686933505
-0.00025472,0.0253141310231222,1.50453533909111
-0.00025468,0.02460422367710628,1.504576240199798
-0.0002546399999999999,0.02548486823292214,1.504431513199831
-0.0002546,0.02456827900135729,1.504601410112836
-0.00025456,0.02393924717577241,1.504614781629137
-0.00025452,0.02556574375335613,1.504568374601973
-0.00025448,0.02531413102312219,1.504613208509571
-0.0002544399999999999,0.02419085990600794,1.504644670900869
-0.0002543999999999999,0.02505353212395132,1.504590398275882
-0.00025436,0.02527818634737449,1.504566801482409
-0.00025432,0.0251523799822575,1.504724899998678
-0.00025428,0.02414592906132173,1.504611635390008
-0.00025424,0.02469408536647327,1.504641524661739
-0.0002541999999999999,0.02486482257627587,1.504597477313924
-0.00025416,0.02459523750816807,1.504599050433488
-0.00025412,0.02549385440186073,1.504564441803061
-0.00025408,0.0245772651702942,1.504566014922627
-0.00025404,0.02366966210766627,1.504568374601973
-0.0002539999999999999,0.02373256529022423,1.504643097781305
-0.00025396,0.02435261094687105,1.504701303205204
-0.00025392,0.02561067459804079,1.504543991248718
-0.00025388,0.02561067459804077,1.504521967574809
-0.00025384,0.02546689589505021,1.504558935884585
-0.0002537999999999999,0.02446044497411617,1.504694224167162
-0.00025376,0.02555675758441921,1.504553429966107
-0.00025372,0.02548486823292381,1.504621860667179
-0.00025368,0.02409201204770017,1.504543991248718
-0.00025364,0.02448740348092421,1.504626580025873
-0.0002535999999999999,0.02506251829288571,1.504666694574778
-0.00025356,0.02366067593872769,1.504632872504133
-0.00025352,0.02455030666348344,1.504617141308484
-0.00025348,0.02383141314852929,1.504639164982392
-0.00025344,0.02511643530650981,1.50460927571066
-0.0002534,0.02508049063076217,1.504645457460652
-0.0002533599999999999,0.02460422367710498,1.504611635390007
-0.00025332,0.02458625133923114,1.504628153145438
-0.00025328,0.02557472992229307,1.504628153145438
-0.00025324,0.02535906186780683,1.504687145129121
-0.0002532,0.02496367043458278,1.504572307400886
-0.0002531599999999999,0.02546689589504775,1.504627366585656
-0.00025312,0.02426274925750178,1.504621860667179
-0.00025308,0.02481989173159122,1.504665121455213
-0.00025304,0.02532311719205912,1.504502303580249
-0.000253,0.02588924583508447,1.504564441803061
-0.0002529599999999999,0.02603302453807365,1.504546350928066
-0.00025292,0.02455030666348343,1.504623433786743
-0.00025288,0.02448740348092495,1.504629726265003
-0.00025284,0.02532311719205911,1.504648603699781
-0.0002528,0.02353486957361398,1.504544777808501
-0.0002527599999999999,0.02486482257627664,1.50450230358025
-0.00025272,0.02529615868524834,1.504639164982392
-0.00025268,0.02561966076697771,1.504530619732417
-0.00025264,0.02430768010218641,1.504709168803029
-0.0002526,0.02494569809670821,1.504603769792183
-0.00025256,0.02532311719205844,1.504597477313924
-0.0002525199999999999,0.025215283164816,1.504658042417171
-0.00025248,0.02440652796049261,1.50463837842261
-0.00025244,0.02448740348092495,1.504715461281287
-0.0002524,0.02551182673973459,1.504625793466091
-0.00025236,0.02481090556265556,1.504754789270409
-0.0002523199999999999,0.02434362477793591,1.504480279906341
-0.00025228,0.02532311719205911,1.504556576205236
-0.00025224,0.02434362477793412,1.504534552531329
-0.0002522,0.02411897055451096,1.50462579346609
-0.00025216,0.0240740397098264,1.504558935884585
-0.0002521199999999999,0.0251433938133199,1.504578599879145
-0.00025208,0.02476597471796968,1.504668267694342
-0.00025204,0.02392127483789855,1.504565228362844
-0.000252,0.02472104387328503,1.5045896117161
-0.00025196,0.02419085990600732,1.504671413933472
-0.0002519199999999999,0.02411897055451304,1.504736698395413
-0.00025188,0.02526920017843757,1.504607702591096
-0.00025184,0.02479293322478045,1.504656469297605
-0.0002518,0.02412795672344788,1.50475793550954
-0.00025176,0.02488279491414973,1.504580959558492
-0.0002517199999999999,0.02486482257627594,1.504683998889991
-0.0002516799999999999,0.02490975342096049,1.504659615536735
-0.00025164,0.0250445459550144,1.504533765971547
-0.0002516,0.02418187373706943,1.504697370406292
-0.00025156,0.02509846296863595,1.504669840813907
-0.00025152,0.02545790972611237,1.504670627373689
-0.0002514799999999999,0.02473901621115845,1.504626580025874
-0.00025144,0.02450537581879881,1.504691864487816
-0.0002514,0.02340906320849374,1.50458331923784
-0.00025136,0.0245772651702942,1.504581746118276
-0.00025132,0.02461320984604184,1.504521967574811
-0.0002512799999999999,0.02499961511032959,1.504675346732383
-0.00025124,0.02490076725202358,1.504564441803061
-0.0002512,0.02558371609122999,1.504658828976954
-0.00025116,0.02453233432560957,1.504610062270443
-0.00025112,0.02605998304488433,1.504701303205204
-0.0002510799999999999,0.02506251829288878,1.504661188656301
-0.00025104,0.02535906186780683,1.504669840813907
-0.000251,0.02465814069072654,1.504692651047598
-0.00025096,0.02610491388957174,1.50472254031933
-0.00025092,0.02559270226016692,1.504636018743263
-0.0002508799999999999,0.02634754045086608,1.504618714428049
-0.0002508399999999999,0.02487380874521279,1.504628153145438
-0.0002508,0.02570053628741005,1.50463523218348
-0.00025076,0.02553878524654536,1.504644670900869
-0.00025072,0.02578141180784239,1.504552643406325
-0.00025068,0.02485583640734063,1.50464152466174
-0.0002506399999999999,0.02584431499040087,1.504610848830225
-0.0002506,0.02490975342096048,1.504602196672618
-0.00025056,0.02593417667977014,1.504701303205205
-0.00025052,0.02521528316481602,1.504791757580184
-0.00025048,0.02481090556265504,1.504680852650861
-0.0002504399999999999,0.02475698854903299,1.504608489150878
-0.0002504,0.02488279491414972,1.504637591862827
-0.00025036,0.025215283164816,1.504679279531297
-0.00025032,0.02398417802045706,1.504719394080201
-0.00025028,0.02547588206398417,1.504559722444367
-0.0002502399999999999,0.02428970776431633,1.504660402096518
-0.0002502,0.02636551278874261,1.504735911835631
-0.00025016,0.02522426933375293,1.504685572009555
-0.00025012,0.02496367043458205,1.504636018743263
-0.00025008,0.02403809503408029,1.504768160786711
-0.0002500399999999999,0.02593417667976816,1.504679279531296
-0.00025,0.02484685023840201,1.504744563993238
-0.00024996,0.02482887790052816,1.504629726265004
-0.00024992,0.02488279491414971,1.504722540319331
-0.00024988,0.02397519185152013,1.504555003085672
-0.00024984,0.02432565244005961,1.504615568188919
-0.0002497999999999999,0.02519731082694215,1.50466748113456
-0.00024976,0.02532311719205912,1.504570734281321
-0.00024972,0.024235790750691,1.504650176819347
-0.00024968,0.02481989173159123,1.504551856846542
-0.00024964,0.02580837031465137,1.504591971395447
-0.0002495999999999999,0.02591620434189358,1.504662761775865
-0.00024956,0.02443348646730338,1.504685572009556
-0.00024952,0.02376850996597081,1.504573093960668
-0.00024948,0.02542196505036531,1.50466433489543
-0.00024944,0.02491873958989834,1.50460927571066
-0.0002493999999999999,0.02650929149172925,1.504712315042158
-0.00024936,0.02420883224388023,1.504631299384568
-0.00024932,0.0248827949141497,1.504647030580216
-0.00024928,0.02466712685966347,1.504626580025873
-0.00024924,0.02362473126298189,1.504625006906309
-0.0002491999999999999,0.02486482257627559,1.504661188656301
-0.00024916,0.0247120577043481,1.504666694574778
-0.00024912,0.02309454729570132,1.504604556351965
-0.00024908,0.02432565244006025,1.504715461281287
-0.00024904,0.0248738087452128,1.504574667080234
-0.0002489999999999999,0.02443348646730377,1.504484999265035
-0.0002489599999999999,0.02464915452178962,1.504541631569371
-0.00024892,0.02387634399321393,1.504503876699815
-0.00024888,0.02498164277245591,1.5046029832324
-0.00024884,0.0251793384890683,1.504678492971514
-0.0002488,0.02446943114305238,1.504565228362844
-0.0002487599999999999,0.02351689723573738,1.504621074107396
-0.00024872,0.02380445464171852,1.504425220721571
-0.00024868,0.02444247263624032,1.50459354451501
-0.00024864,0.02455929283242035,1.504605342911748
-0.0002486,0.02370560678341386,1.504671413933472
-0.0002485599999999999,0.02394823334471062,1.504545564368284
-0.00024852,0.02464915452178962,1.504654109618259
-0.00024848,0.02349892489786302,1.504656469297606
-0.00024844,0.02509846296863596,1.504551856846543
-0.0002484,0.02429869393325094,1.50480984845518
-0.0002483599999999999,0.02427173542643903,1.504484212705254
-0.00024832,0.02445145880517725,1.504722540319331
-0.00024828,0.02554777141548229,1.504591184835664
-0.00024824,0.02444247263624031,1.504540845009589
-0.0002482,0.02479293322478044,1.504519607895463
-0.0002481599999999999,0.02552979907760841,1.504486572384601
-0.0002481199999999999,0.02552081290867151,1.504604556351965
-0.00024808,0.02476597471796966,1.504565228362845
-0.00024804,0.02564661927378849,1.504527473493287
-0.000248,0.02493671192777128,1.504503876699814
-0.00024796,0.0242537630885661,1.504443311596567
-0.0002479199999999999,0.02391228866896247,1.504518821335681
-0.00024788,0.0243705832847449,1.504587252036753
-0.00024784,0.02577242563890544,1.504436232558525
-0.0002478,0.0261588309031933,1.504517248216116
-0.00024776,0.02382242697959662,1.504533765971547
-0.0002477199999999999,0.02633855428192853,1.504571520841103
-0.00024768,0.02451436198773573,1.504568374601973
-0.00024764,0.02460422367710498,1.50464152466174
-0.0002476,0.023498924897863,1.504584105797622
-0.00024756,0.02427173542643729,1.504519607895463
-0.0002475199999999999,0.02445145880517762,1.504537698770459
-0.00024748,0.02465814069072655,1.504584105797623
-0.00024744,0.02570053628741005,1.504460615911781
-0.0002474,0.02445145880517723,1.504475560547647
-0.00024736,0.02444247263624031,1.504439378797655
-0.0002473199999999999,0.02356182808042244,1.504452750313956
-0.0002472799999999999,0.02408302587876325,1.504393758330274
-0.00024724,0.0244065279604926,1.504468481509605
-0.0002472,0.02518832465800521,1.504537698770459
-0.00024716,0.02611390005850868,1.504505449819379
-0.00024712,0.0247390162111614,1.504335552906374
-0.0002470799999999999,0.02506251829288825,1.504437019118308
-0.00024704,0.02382242697959238,1.504260829727043
-0.000247,0.02501758744820361,1.504510955737856
-0.00024696,0.02493671192777127,1.504341058824852
-0.00024692,0.02441551412943048,1.504396904569403
-0.0002468799999999999,0.0254668958950501,1.504378813694408
-0.00024684,0.02554777141548228,1.504446457835697
-0.0002468,0.02543095121930226,1.504404770167228
-0.00024676,0.02540399271249147,1.504477133667212
-0.00024672,0.02500860127926741,1.504360722819412
-0.0002466799999999999,0.02573648096315669,1.504415782004182
-0.00024664,0.02515237998225752,1.504545564368283
-0.0002466,0.02511643530650981,1.504466121830257
-0.00024656,0.02426274925750178,1.504436232558525
-0.00024652,0.02408302587876357,1.504432299759614
-0.0002464799999999999,0.02547588206398583,1.504308023313988
-0.00024644,0.0249097534209605,1.504518034775897
-0.0002464,0.02501758744820362,1.504437019118308
-0.00024636,0.02503555978607747,1.504393758330273
-0.00024632,0.02403809503407862,1.504473987428082
-0.00024628,0.02514339381331859,1.504310382993337
-0.0002462399999999999,0.02526021400950063,1.504319821710725
-0.0002462,0.02551182673973457,1.504355216900934
-0.00024616,0.0251793384890683,1.504378027134626
-0.00024612,0.02459523750816807,1.504385106172667
-0.00024608,0.02443348646730368,1.504365442178106
-0.0002460399999999999,0.0246671268596644,1.504400050808533
-0.000246,0.02517035232013137,1.504325327629202
-0.00024596,0.02540399271249146,1.504326114188985
-0.00024592,0.02540399271249145,1.50436701529767
-0.00024588,0.02511643530651032,1.50432454106942
-0.0002458399999999999,0.02610491388957108,1.504256896928131
-0.0002458,0.02573648096315775,1.504420501362877
-0.00024576,0.02405606737195246,1.504174308150975
-0.00024572,0.02492772575883435,1.504326900748767
-0.00024568,0.02475698854903306,1.504192399025972
-0.0002456399999999999,0.02465814069072885,1.504340272265069
-0.0002456,0.0259251905108332,1.504175094710758
-0.00024556,0.02608694155169789,1.504289932438992
-0.00024552,0.02567357778059926,1.504164869433586
-0.00024548,0.02557472992229307,1.50430173083573
-0.0002454399999999999,0.02526021400950048,1.504300157716164
-0.0002453999999999999,0.02517035232013137,1.50419161246619
-0.00024536,0.02511643530650981,1.504200264623795
-0.00024532,0.02535906186780682,1.504208130221619
-0.00024528,0.02639247129555339,1.504300944275947
-0.00024524,0.02579938414571733,1.504158576955327
-0.0002451999999999999,0.02508947679969979,1.50434735130311
-0.00024516,0.02550284057079765,1.504234873254223
-0.00024512,0.02502657361714054,1.504190825906407
-0.00024508,0.02459523750816804,1.504222288297703
-0.00024504,0.02373256529022466,1.504264762525955
-0.0002449999999999999,0.02567357778059828,1.504162509754239
-0.00024496,0.02513440764438367,1.504142059199896
-0.00024492,0.02594316284870707,1.504092505933603
-0.00024488,0.02511643530650981,1.504203410862925
-0.00024484,0.02558371609122915,1.504095652172732
-0.0002447999999999999,0.02514339381332359,1.50412082208577
-0.00024476,0.02678786272877817,1.504197118384666
-0.00024472,0.02459523750816807,1.50420498398249
-0.00024468,0.02512542147544674,1.504131833922724
-0.00024464,0.02607795538276095,1.504290718998775
-0.0002445999999999999,0.02525122784056314,1.504223074857487
-0.0002445599999999999,0.02493671192777128,1.50428599964008
-0.00024452,0.02505353212395132,1.504208130221619
-0.00024448,0.02479293322478045,1.504245885091176
-0.00024444,0.02597012135551784,1.504199478064014
-0.0002444,0.02525122784056501,1.504268695324867
-0.0002443599999999999,0.02628463726831082,1.504164082873803
-0.00024432,0.02659016701216579,1.504236446373787
-0.00024428,0.02513440764438367,1.50417588127054
-0.00024424,0.02543993738823916,1.504067336020564
-0.0002442,0.02528717251631169,1.504046885466221
-0.0002441599999999999,0.02535906186780817,1.504087000015125
-0.00024412,0.0260869415516979,1.504080707536866
-0.00024408,0.02484685023840201,1.5041239683249
-0.00024404,0.0244065279604926,1.503931261178204
-0.000244,0.02480191939371666,1.504110596808598
-0.0002439599999999999,0.02495468426564665,1.504122395205334
-0.00024392,0.02579039797677931,1.504150711357502
-0.00024388,0.02466712685966348,1.504097225292297
-0.00024384,0.02482887790052814,1.504042166107527
-0.0002438,0.02641942980236418,1.504145991998808
-0.0002437599999999999,0.02538602037461782,1.504011490276012
-0.00024372,0.02550284057079765,1.504131047362942
-0.00024368,0.02624869259256257,1.504179814069452
-0.00024364,0.0249097534209605,1.504094865612949
-0.0002436,0.02711136481050753,1.504080707536865
-0.00024356,0.02506251829289197,1.504072055379259
-0.0002435199999999999,0.02504454595501439,1.504017782754271
-0.00024348,0.02534108952993298,1.504006770917318
-0.00024344,0.02483786406946508,1.504069695699912
-0.0002434,0.02532311719205911,1.504002838118405
-0.00024336,0.02439754179155736,1.503950138612983
-0.0002433199999999999,0.02561067459804164,1.50386204391735
-0.00024328,0.02608694155169789,1.504044525786874
-0.00024324,0.02415491523025865,1.503994185960798
-0.0002432,0.02473003004222196,1.503970589167326
-0.00024316,0.02581735648358811,1.503976881645585
-0.0002431199999999999,0.02590721817295712,1.504016209634707
-0.00024308,0.02468509919753733,1.504061830102088
-0.00024304,0.02557472992229307,1.503962723569501
-0.000243,0.0263295681129949,1.503995759080363
-0.00024296,0.02547588206398843,1.503975308526021
-0.0002429199999999999,0.02564661927379055,1.503957217651025
-0.00024288,0.02678786272877817,1.503980027884714
-0.00024284,0.0258533011593378,1.50400126499884
-0.0002428,0.02646436064704881,1.503989466602104
-0.00024276,0.02641942980236416,1.504072055379259
-0.00024272,0.02623072025468906,1.503921822460815
-0.0002426799999999999,0.02562864693591463,1.503974521966237
-0.00024264,0.02559270226016691,1.503969802607543
-0.0002426,0.02500860127926668,1.503940699895593
-0.00024256,0.02439754179155567,1.503890360069518
-0.00024252,0.02387634399321488,1.503934407417334
-0.0002424799999999999,0.0259341766797695,1.503928114939074
-0.00024244,0.02558371609123001,1.503988680042322
-0.0002424,0.02552081290867151,1.503793613216278
-0.00024236,0.02494569809670821,1.503910810623861
-0.00024232,0.02530514485418461,1.503899012227124
-0.0002422799999999999,0.02454132049454842,1.504001264998841
-0.00024224,0.02559270226016692,1.503864403596698
-0.0002422,0.02566459161166233,1.503906091265166
-0.00024216,0.02557472992229307,1.503888786949952
-0.00024212,0.02459523750816984,1.503905304705384
-0.0002420799999999999,0.02367864827660304,1.503686641085868
-0.00024204,0.02450537581879881,1.503832154645618
-0.000242,0.02461320984604192,1.503987106922757
-0.00024196,0.02563763310485155,1.503907664384731
-0.00024192,0.02529615868524834,1.503893506308647
-0.0002418799999999999,0.02490975342095966,1.503812490651056
-0.0002418399999999999,0.02445145880517724,1.503937553656463
-0.0002418,0.02568256394953621,1.503936767096681
-0.00024176,0.02557472992229307,1.503777095460848
-0.00024172,0.02465814069072656,1.503787320738019
-0.00024168,0.02513440764438278,1.503792040096714
-0.0002416399999999999,0.02455929283242058,1.50378102825976
-0.0002416,0.02468509919753732,1.503880134792347
-0.00024156,0.02508049063076211,1.503751925547809
-0.00024152,0.02597012135551785,1.503700799161951
-0.00024148,0.02625767876149896,1.503769229863023
-0.0002414399999999999,0.02542196505036512,1.503812490651057
-0.0002414,0.02532311719205912,1.503851032080396
-0.00024136,0.0247749608869066,1.503832154645617
-0.00024132,0.02500860127926668,1.503846312721701
-0.00024128,0.02612288622744356,1.503869909515174
-0.0002412399999999999,0.02579938414571377,1.503858111118437
-0.0002412,0.02443348646730338,1.503817210009751
-0.00024116,0.02595214901764399,1.503755858346722
-0.00024112,0.0249097534209605,1.503808557852144
-0.00024108,0.02599707986232862,1.503710237879341
-0.0002410399999999999,0.02481989173159089,1.503659111493483
-0.0002409999999999999,0.02463118218391578,1.503721249716295
-0.00024096,0.02526920017843756,1.50367090989022
-0.00024092,0.0246401683528527,1.503708664759776
-0.00024088,0.02392127483789857,1.503772376102152
-0.00024084,0.02503555978607545,1.503733834672813
-0.0002407999999999999,0.02508947679969837,1.503773162661935
-0.00024076,0.02473003004222196,1.503699226042387
-0.00024072,0.02502657361714055,1.503609558227189
-0.00024068,0.02466712685966348,1.503721249716294
-0.00024064,0.02407403970982741,1.503724395955425
-0.0002405999999999999,0.02536804803674057,1.503711024439123
-0.00024056,0.02361574509404307,1.503699226042386
