SoundData100mm.csv

#Digilent WaveForms Oscilloscope Acquisition
#Device Name: Discovery3
#Serial Number: SN:210415BE893B
#Date Time: 2026-02-11 14:44:11.698.562.720
#Sample rate: 2.5e+07Hz
#Samples: 32768
#Trigger: Source: Wavegen C1 Condition: Rising
#Average: 100
#Channel 1: Range: 2 V/div Offset: 0 V Sample Mode: Average
#Channel 2: Range: 50 mV/div Offset: -1.5 V Sample Mode: Average
#Wavegen Channel 1: Running
#Mode: Simple
#Type: Pulse
#Frequency: 100 Hz
#Period: 10 ms
#Amplitude: 5 V
#Offset: 0 V
#Symmetry: 0.1 %
#Phase: 0 °
#Power Supplies: ON
#Positive Supply: ON
#Voltage: 3 V Readback: 3.001538306 V
#Negative Supply: OFF
#Voltage: -1 V

Time (s),Channel 1 (V),Channel 2 (V)
-0.00025536,0.0249097534209605,1.503526969450034
-0.00025532,0.02497265660351899,1.503549779683725
-0.0002552799999999999,0.02538602037461711,1.503504945776126
-0.0002552399999999999,0.0251074491375729,1.503551352803289
-0.0002552,0.02586228732827473,1.503436515075055
-0.00025516,0.02628463726831028,1.503501012977214
-0.00025512,0.02533210336099605,1.503460111868528
-0.00025508,0.02539500654355443,1.503497080178303
-0.0002550399999999999,0.02565560544272588,1.503530902248946
-0.000255,0.02590721817295936,1.50351910385221
-0.00025496,0.02703947545901212,1.503537981286989
-0.00025492,0.02520629699587908,1.503556858721766
-0.00025488,0.02563763310485077,1.50351910385221
-0.0002548399999999999,0.02453233432561124,1.503471123705482
-0.0002548,0.0254489235571761,1.503560791520679
-0.00025476,0.02579938414571623,1.50340269300441
-0.00025472,0.02550284057079764,1.503556072161984
-0.00025468,0.02639247129555177,1.503433368835924
-0.0002546399999999999,0.02550284057079833,1.50342864947723
-0.0002546,0.02587127349721165,1.503432582276142
-0.00025456,0.02605998304488711,1.503486068341348
-0.00025452,0.02507150446182517,1.503461684988092
-0.00025448,0.02555675758441922,1.503427862917447
-0.0002544399999999999,0.02558371609123345,1.503429436037013
-0.0002543999999999999,0.02748878390585845,1.503373590292459
-0.00025436,0.02676989039090431,1.503464831227222
-0.00025432,0.02758763176416464,1.50331853110769
-0.00025428,0.02641942980236418,1.503438874754402
-0.00025424,0.02619477557894141,1.503455392509833
-0.0002541999999999999,0.02616781707213021,1.503470337145699
-0.00025416,0.02547588206398689,1.503490787700042
-0.00025412,0.02519731082694216,1.503426289797883
-0.00025408,0.02632956811299491,1.503529329129381
-0.00025404,0.02620376174787815,1.503397973645715
-0.0002539999999999999,0.02428970776431355,1.503394040846803
-0.00025396,0.02483786406946508,1.503404266123974
-0.00025392,0.02682380740452588,1.503360218776159
-0.00025388,0.02573648096315776,1.50328628215661
-0.00025384,0.02545790972611352,1.503311452069648
-0.0002537999999999999,0.02495468426564506,1.503342914460945
-0.00025376,0.02491873958989742,1.503392467727238
-0.00025372,0.02464016835285269,1.503397973645715
-0.00025368,0.02570053628741003,1.50333819510225
-0.00025364,0.02587127349721133,1.503372017172895
-0.0002535999999999999,0.02493671192777345,1.503438874754401
-0.00025356,0.02613187239638251,1.503372803732678
-0.00025352,0.02562864693591463,1.50335078005877
-0.00025348,0.02493671192777127,1.503362578455506
-0.00025344,0.02642841597130111,1.503530902248946
-0.0002534,0.02533210336099803,1.503445167232661
-0.0002533599999999999,0.02545790972611301,1.503321677346819
-0.00025332,0.02531413102312219,1.50331853110769
-0.00025328,0.02541297888142839,1.503298080553346
-0.00025324,0.02600606603126554,1.503313811748995
-0.0002532,0.0263115957751205,1.503534835047858
-0.0002531599999999999,0.02617680324106797,1.503273697200091
-0.00025312,0.02662611168791349,1.50342235699897
-0.00025308,0.02547588206398688,1.503403479564192
-0.00025304,0.02605099687595019,1.503301226792476
-0.000253,0.02563763310485232,1.503397973645714
-0.0002529599999999999,0.02469408536647491,1.503265045042484
-0.00025292,0.02505353212395132,1.503269764401179
-0.00025288,0.02637449895767954,1.503224930493581
-0.00025284,0.02623970642362564,1.503401119884845
-0.0002528,0.02621274791681491,1.503323250466384
-0.0002527599999999999,0.02595214901764397,1.503285495596828
-0.00025272,0.02594316284870705,1.503261112243572
-0.00025268,0.02572749479422082,1.503366511254419
-0.00025264,0.02589823200402242,1.503264258482703
-0.0002526,0.02689569675602129,1.503309092390301
-0.00025256,0.02628463726831139,1.503314598308778
-0.0002525199999999999,0.02641044363342725,1.503243021368575
-0.00025248,0.02642841597130111,1.503283922477263
-0.00025244,0.02537703420568067,1.50328628215661
-0.0002524,0.02508049063076212,1.503227290172927
-0.00025236,0.02635652661980336,1.503222570814233
-0.0002523199999999999,0.02359777275617269,1.503275270319656
-0.00025228,0.0255208129086715,1.503288641835957
-0.00025224,0.02632058194405798,1.503281562797915
-0.0002522,0.02588924583508551,1.503364151575071
-0.00025216,0.02601505220020223,1.503259539124007
-0.0002521199999999999,0.02586228732827505,1.503356285977247
-0.00025208,0.02603302453807631,1.503297293993564
-0.00025204,0.02597012135551785,1.503312238629431
-0.000252,0.02550284057079765,1.503276056879439
-0.00025196,0.02595214901764317,1.503309878950084
-0.0002519199999999999,0.02623072025468905,1.503255606325095
-0.00025188,0.02641044363342726,1.503285495596828
-0.00025184,0.02585330115933778,1.503227290172927
-0.0002518,0.02612288622744559,1.503351566618552
-0.00025176,0.02570952245634696,1.503314598308777
-0.0002517199999999999,0.02552081290867184,1.503246954167488
-0.0002516799999999999,0.02570952245634696,1.503371230613113
-0.00025164,0.02589823200402242,1.503314598308778
-0.0002516,0.02524224167162679,1.503365724694635
-0.00025156,0.02635652661980569,1.503299653672912
-0.00025152,0.02508947679970133,1.503336621982686
-0.0002514799999999999,0.02618578941000287,1.503354712857681
-0.00025144,0.02551182673973458,1.503235155770752
-0.0002514,0.02405606737195246,1.50339640052615
-0.00025136,0.02579039797677932,1.503338981662033
-0.00025132,0.02485583640734064,1.503190321863154
-0.0002512799999999999,0.0254579097261125,1.503243021368577
-0.00025124,0.02517035232013137,1.503316957988125
-0.0002512,0.02585330115933778,1.503219424575103
-0.00025116,0.02472104387328504,1.503316957988125
-0.00025112,0.02738094987861049,1.503275270319656
-0.0002510799999999999,0.02561966076697542,1.503416064520711
-0.00025104,0.0243705832847449,1.503293361194652
-0.000251,0.02535906186780682,1.503228863292493
-0.00025096,0.02472104387328504,1.503303586471824
-0.00025092,0.02555675758441922,1.503384602129414
-0.0002508799999999999,0.025098462968636,1.503254819765313
-0.0002508399999999999,0.02512542147544672,1.503357859096812
-0.0002508,0.02549385440186074,1.503201333700107
-0.00025076,0.02558371609123,1.503181669705546
-0.00025072,0.02532311719205914,1.503354712857681
-0.00025068,0.02508947679969946,1.503293361194652
-0.0002506399999999999,0.02537703420568067,1.503353139738117
-0.0002506,0.02622173408575179,1.503250100406618
-0.00025056,0.02563763310485156,1.503221784254451
-0.00025052,0.02527818634737449,1.503288641835957
-0.00025048,0.02490076725202424,1.503324823585949
-0.0002504399999999999,0.0251433938133219,1.503237515450099
-0.0002504,0.02586228732827473,1.503358645656594
-0.00025036,0.02570053628741004,1.503200547140325
-0.00025032,0.02676090422196738,1.503274483759872
-0.00025028,0.02679684889771502,1.503327969825079
-0.0002502399999999999,0.02570952245634598,1.503320104227254
-0.0002502,0.02517035232013138,1.503197400901195
-0.00025016,0.02610491388957174,1.503332689183773
-0.00025012,0.0253141310231222,1.503268191281614
-0.00025008,0.02529615868524837,1.503335835422903
-0.0002500399999999999,0.02544892355717883,1.503281562797916
-0.00025,0.02694961376964284,1.503358645656594
-0.00024996,0.02540399271249147,1.503285495596827
-0.00024992,0.02533210336099604,1.503197400901195
-0.00024988,0.02614085856531943,1.503220997694668
-0.00024984,0.02548486823292498,1.503177736906635
-0.0002497999999999999,0.0254219650503653,1.503377523091373
-0.00024976,0.02510744913757289,1.503235155770752
-0.00024972,0.02546689589504995,1.503204479939237
-0.00024968,0.02515237998225751,1.503262685363138
-0.00024964,0.02612288622744382,1.503195041221849
-0.0002495999999999999,0.02552081290867123,1.50319582778163
-0.00024956,0.02535906186780683,1.503266618162049
-0.00024952,0.02614085856531945,1.503300440232694
-0.00024948,0.0253500756988699,1.503272910640309
-0.00024944,0.025439937388239,1.503330329504426
-0.0002493999999999999,0.02648233298492254,1.503279203118568
-0.00024936,0.02641942980236417,1.503229649852275
-0.00024932,0.02510744913757289,1.503340554781598
-0.00024928,0.02537703420568068,1.503340554781597
-0.00024924,0.02628463726830862,1.503209985857714
-0.0002491999999999999,0.02501758744820421,1.503239088569664
-0.00024916,0.02534108952993297,1.503268191281614
-0.00024912,0.02588025966614858,1.503349993498987
-0.00024908,0.02526021400950064,1.503335048863121
-0.00024904,0.02580837031465318,1.503377523091372
-0.0002489999999999999,0.02629362343724608,1.503306732710953
-0.0002489599999999999,0.02568256394953619,1.50328942839574
-0.00024892,0.02621274791681487,1.503306732710954
-0.00024888,0.02633855428193184,1.503364938134854
-0.00024884,0.02535007569886991,1.503342127901162
-0.0002488,0.02439754179155742,1.503249313846836
-0.0002487599999999999,0.0257544533010298,1.503395613966368
-0.00024872,0.02475698854903273,1.503365724694635
-0.00024868,0.02588924583508551,1.503321677346819
-0.00024864,0.02557472992229307,1.503388534928326
-0.0002486,0.02496367043458315,1.503342127901163
-0.0002485599999999999,0.02626666493043634,1.503357859096811
-0.00024852,0.02622173408575179,1.503324823585949
-0.00024848,0.025215283164816,1.503395613966368
-0.00024844,0.02670698720834584,1.503341341341379
-0.0002484,0.02580837031465479,1.50343179571636
-0.0002483599999999999,0.02611390005850757,1.503301226792476
-0.00024832,0.02550284057079765,1.503351566618552
-0.00024828,0.02563763310485154,1.503233582651187
-0.00024824,0.02561067459804077,1.503375949971807
-0.0002482,0.02434362477793412,1.503265831602266
-0.0002481599999999999,0.02511643530651047,1.503281562797916
-0.0002481199999999999,0.0254848682329238,1.503339768221815
-0.00024808,0.02561067459804077,1.503287068716392
-0.00024804,0.02544892355717608,1.503445953792443
-0.000248,0.02457726517029422,1.503435728515273
-0.00024796,0.02554777141548053,1.503422356998971
-0.0002479199999999999,0.0262397064236243,1.503418424200059
-0.00024788,0.02551182673973459,1.503407412363105
-0.00024784,0.02432565244006026,1.503485281781566
-0.0002478,0.02605998304488709,1.503424716678318
-0.00024776,0.02600606603126565,1.503546633444595
-0.0002477199999999999,0.02520629699587984,1.50337044405333
-0.00024768,0.02561966076697769,1.503398760205498
-0.00024764,0.0253141310231222,1.503362578455507
-0.0002476,0.02639247129555338,1.50334448758051
-0.00024756,0.02478394705584644,1.503316957988125
-0.0002475199999999999,0.02631159577512076,1.503435728515272
-0.00024748,0.02614984473425638,1.503331116064209
-0.00024744,0.02584431499040087,1.503346847259857
-0.0002474,0.02578141180784238,1.503364938134853
-0.00024736,0.02557472992229306,1.503407412363104
-0.0002473199999999999,0.02493671192777316,1.503368870933766
-0.0002472799999999999,0.02597012135551784,1.503336621982686
-0.00024724,0.02675191805303045,1.503515957613081
-0.0002472,0.02549385440186074,1.503415277960929
-0.00024716,0.0261228862274456,1.503514384493516
-0.00024712,0.02637449895767908,1.503446740352226
-0.0002470799999999999,0.02666205636366119,1.503381455890285
-0.00024704,0.02579039797677932,1.503442807553314
-0.000247,0.02636551278874261,1.503602479189148
-0.00024696,0.026931641431769,1.503481348982653
-0.00024692,0.02664408402578786,1.503479775863088
-0.0002468799999999999,0.02690468292495787,1.503524609770687
-0.00024684,0.02671597337728274,1.503530902248946
-0.0002468,0.02688671058708435,1.503528542569599
-0.00024676,0.02645537447811189,1.503556858721766
-0.00024672,0.02736297754073982,1.503528542569599
-0.0002466799999999999,0.0263385542819311,1.503460111868527
-0.00024664,0.02593417667977014,1.503362578455506
-0.0002466,0.02688671058708436,1.503567083998939
-0.00024656,0.0270664339658229,1.503493933939172
-0.00024652,0.02653624999854518,1.503576522716328
-0.0002464799999999999,0.0256915501184736,1.503486068341348
-0.00024644,0.02595214901764399,1.503555285602202
-0.0002464,0.02725514351349835,1.503449886591357
-0.00024636,0.0260959277206348,1.503559218401114
-0.00024632,0.02671597337728276,1.503634728140227
-0.00024628,0.02708440630369607,1.503489214580477
-0.0002462399999999999,0.02634754045086876,1.503692147004345
-0.0002462,0.02475698854903274,1.503501012977214
-0.00024616,0.02672495954621969,1.503533261928294
-0.00024612,0.02727311585137222,1.503696079803257
-0.00024608,0.02493671192777552,1.503552139363072
-0.0002460399999999999,0.02591620434189598,1.503641020618486
-0.000246,0.02574546713209467,1.503560791520678
-0.00024596,0.02577242563890546,1.50360326574893
-0.00024592,0.02466712685966348,1.503615850705449
-0.00024588,0.0253860203746163,1.503686641085868
-0.0002458399999999999,0.02507150446182445,1.503555285602202
-0.0002458,0.02466712685966348,1.50360955822719
-0.00024576,0.02381344081065543,1.50357730927611
-0.00024572,0.02541297888142838,1.503615064145667
-0.00024568,0.02631159577511941,1.503640234058704
-0.0002456399999999999,0.02578141180784146,1.503526182890251
-0.0002456,0.02527818634737449,1.503624502863055
-0.00024556,0.02487380874521278,1.503482135542436
-0.00024552,0.02419984607494328,1.503662257732612
-0.00024548,0.02623072025468871,1.503682708286956
-0.0002454399999999999,0.0257454671320949,1.5037165303576
-0.0002453999999999999,0.02587127349721164,1.50371967659673
-0.00024536,0.02601505220020248,1.503711024439123
-0.00024532,0.02560168842910384,1.503615850705449
-0.00024528,0.02588924583508551,1.503607985107624
-0.00024524,0.02588924583508551,1.503585961433716
-0.0002451999999999999,0.02529615868524707,1.503696866363039
-0.00024516,0.02459523750816807,1.503715743797818
-0.00024512,0.02601505220020249,1.503638660939139
-0.00024508,0.02712035097944446,1.503711024439123
-0.00024504,0.02622173408575344,1.503754285227157
-0.0002449999999999999,0.02629362343724752,1.503654392134788
-0.00024496,0.02646436064704881,1.503737767471725
-0.00024492,0.02530514485418527,1.503630795341315
-0.00024488,0.02543993738823916,1.503673269569567
-0.00024484,0.02526021400950097,1.503711810998905
-0.0002447999999999999,0.02594316284870754,1.503755858346721
-0.00024476,0.02621274791681486,1.50371338411847
-0.00024472,0.02734500520286761,1.503707878199994
-0.00024468,0.02483786406946509,1.50371023787934
-0.00024464,0.02710237864157061,1.503775522341282
-0.0002445999999999999,0.02738094987861225,1.503806984732579
-0.0002445599999999999,0.02569155011847311,1.503692147004345
-0.00024452,0.02690468292495821,1.503779455140194
-0.00024448,0.02666205636366119,1.503788893857585
-0.00024444,0.02570952245634696,1.503837660564095
-0.0002444,0.02489178108308812,1.503713384118471
-0.0002443599999999999,0.02591620434189747,1.503773162661935
-0.00024432,0.02657219467429191,1.503831368085836
-0.00024428,0.02561067459804077,1.503853391759743
-0.00024424,0.02601505220020247,1.503734621232596
-0.0002442,0.02494569809671015,1.503806984732579
-0.0002441599999999999,0.02535906186780777,1.503789680417366
-0.00024412,0.02587127349721164,1.503733834672814
-0.00024408,0.02543095121930223,1.503799119134755
-0.00024404,0.025215283164816,1.50386204391735
-0.000244,0.02497265660351942,1.503725182515207
-0.0002439599999999999,0.02499961511033098,1.503850245520613
-0.00024392,0.02566459161166234,1.503760577705415
-0.00024388,0.02600606603126556,1.503830581526053
-0.00024384,0.02536804803674374,1.503832154645618
-0.0002438,0.0258892458350855,1.503986320362975
-0.0002437599999999999,0.02588025966614967,1.503927328379292
-0.00024372,0.02648233298492267,1.503907664384731
-0.00024368,0.0268687382492105,1.503857324558656
-0.00024364,0.02632058194405798,1.503836874004312
-0.0002436,0.02708440630369676,1.503990253161886
-0.00024356,0.02632956811299627,1.503835300884747
-0.0002435199999999999,0.02614984473425638,1.503908450944514
-0.00024348,0.02583532882146394,1.503871482634739
-0.00024344,0.02662611168791349,1.503965083248848
-0.0002434,0.02626666493043643,1.503895865987995
-0.00024336,0.02611390005850894,1.503937553656463
-0.0002433199999999999,0.02724615734456002,1.503913956862991
-0.00024328,0.02647334681598574,1.503980814444497
-0.00024324,0.02596113518658091,1.503976881645585
-0.0002432,0.02628463726831028,1.503901371906471
-0.00024316,0.02578141180784329,1.503856537998872
-0.0002431199999999999,0.02663509785684836,1.503959577330371
-0.00024308,0.02550284057079765,1.504034300509702
-0.00024304,0.02502657361714054,1.504076774737955
-0.000243,0.02552081290867151,1.503977668205368
-0.00024296,0.02622173408575053,1.503980814444497
-0.0002429199999999999,0.02580837031465165,1.504034300509703
-0.00024288,0.02497265660351898,1.503979241324932
-0.00024284,0.0250804906307621,1.50407205537926
-0.0002428,0.02455929283242036,1.50395249829233
-0.00024276,0.02676090422196738,1.50405947042274
-0.00024272,0.02565560544272743,1.503982387564062
-0.0002426799999999999,0.02490975342096049,1.504023288672748
-0.00024264,0.02561966076697771,1.503990253161887
-0.0002426,0.025826342652527,1.504083067216213
-0.00024256,0.02649131915385958,1.504092505933602
-0.00024252,0.02496367043458484,1.504069695699912
-0.0002424799999999999,0.02589823200402204,1.504035873629266
-0.00024244,0.02568256394953619,1.504064976341218
-0.0002424,0.02521528316481598,1.504079920977083
-0.00024236,0.02547588206398687,1.504090146254255
-0.00024232,0.02561966076697744,1.504040592987962
-0.0002422799999999999,0.02656320850535475,1.504046098906439
-0.00024224,0.0264284159713011,1.504089359694472
-0.0002422,0.02675191805303046,1.504013849955358
-0.00024216,0.02636551278874262,1.504239592612917
-0.00024212,0.02711136481050618,1.504133407042289
-0.0002420799999999999,0.02627565109937166,1.504219928618357
-0.00024204,0.02535906186780684,1.504197118384666
-0.000242,0.02556574375335613,1.504124754884683
-0.00024196,0.02604201070701326,1.504293865237904
-0.00024192,0.02579938414571622,1.504205770542273
-0.0002418799999999999,0.02575445330103074,1.504118462406423
-0.0002418399999999999,0.02527818634737447,1.504252177569436
-0.0002418,0.02555675758441922,1.504204197422708
-0.00024176,0.02483786406946509,1.504271055004214
-0.00024172,0.02646436064704881,1.504202624303143
-0.00024168,0.02576343946996981,1.50422464797705
-0.0002416399999999999,0.02509846296863772,1.504201051183578
-0.0002416,0.02605998304488711,1.504215995819444
-0.00024156,0.02622173408575178,1.504249817890088
-0.00024152,0.02665307019472426,1.504282066841168
-0.00024148,0.02627565109937403,1.504215995819445
-0.0002414399999999999,0.02618578941000342,1.504333979786809
-0.0002414,0.02581735648359009,1.504209703341185
-0.00024136,0.02622173408575178,1.504256110368348
-0.00024132,0.02577242563890544,1.504276560922691
-0.00024128,0.02576343946996856,1.504164082873804
-0.0002412399999999999,0.02614984473425429,1.50428285340095
-0.0002412,0.02500860127926669,1.504161723194456
-0.00024116,0.02662611168791348,1.504343418504198
-0.00024112,0.02528717251631142,1.504337126025938
-0.00024108,0.02501758744820361,1.504311956112901
-0.0002410399999999999,0.02533210336099889,1.504291505558558
-0.0002409999999999999,0.02688671058708437,1.504238019493353
-0.00024096,0.02561067459804078,1.504340272265068
-0.00024092,0.02623072025468872,1.504378813694407
-0.00024088,0.02441551412942953,1.504370948096584
-0.00024084,0.02525122784056219,1.504320608270509
-0.0002407999999999999,0.0240470812030175,1.504308809873772
-0.00024076,0.02512542147544672,1.504297011477035
-0.00024072,0.02574546713209468,1.504314315792248
-0.00024068,0.02568256394953619,1.504317462031378
-0.00024064,0.02614085856531862,1.504374094335713
-0.0002405999999999999,0.02561966076697664,1.504229367335747
-0.00024056,0.02503555978607747,1.504367801857453
