SoundData50mm.csv

#Digilent WaveForms Oscilloscope Acquisition
#Device Name: Discovery3
#Serial Number: SN:210415BE893B
#Date Time: 2026-02-11 14:40:52.468.562.720
#Sample rate: 2.5e+07Hz
#Samples: 32768
#Trigger: Source: Wavegen C1 Condition: Rising
#Average: 100
#Channel 1: Range: 2 V/div Offset: 0 V Sample Mode: Average
#Channel 2: Range: 100 mV/div Offset: -1.5 V Sample Mode: Average
#Wavegen Channel 1: Running
#Mode: Simple
#Type: Pulse
#Frequency: 100 Hz
#Period: 10 ms
#Amplitude: 5 V
#Offset: 0 V
#Symmetry: 0.1 %
#Phase: 0 °
#Power Supplies: ON
#Positive Supply: ON
#Voltage: 3 V Readback: 3.003983517 V
#Negative Supply: OFF
#Voltage: -1 V

Time (s),Channel 1 (V),Channel 2 (V)
-0.00025536,0.02654523616748115,1.50556022648762
-0.00025532,0.02593417667977013,1.505544495291972
-0.0002552799999999999,0.02599707986232995,1.505606633514783
-0.0002552399999999999,0.02672495954621969,1.505616858791955
-0.0002552,0.02651827766067038,1.505631803427821
-0.00025516,0.02738993604755226,1.505535843134364
-0.00025512,0.02714730948625522,1.505620005031085
-0.00025508,0.025368048036747,1.505491009226766
-0.0002550399999999999,0.02708440630369443,1.505559439927837
-0.000255,0.02580837031465317,1.505532696895235
-0.00025496,0.02579938414571623,1.505564159286532
-0.00025492,0.02594316284870706,1.505546854971318
-0.00025488,0.02627565109937275,1.505440669400691
-0.0002548399999999999,0.02497265660352288,1.505600341036524
-0.0002548,0.02712035097944447,1.505553147449578
-0.00025476,0.02657219467429193,1.505497301705025
-0.00025472,0.02618578941000409,1.505490222666983
-0.00025468,0.02557472992229419,1.505587756080005
-0.0002546399999999999,0.02656320850535444,1.505511459781109
-0.0002546,0.02625767876149949,1.505566518965879
-0.00025456,0.02764154877778621,1.505457187156121
-0.00025452,0.02787518917014629,1.505518538819151
-0.00025448,0.02676090422196738,1.505533483455017
-0.0002544399999999999,0.02663509785684973,1.505572811444138
-0.0002543999999999999,0.02625767876149949,1.505442242520255
-0.00025436,0.02735399137180453,1.505498088264808
-0.00025432,0.02590721817295936,1.505334483830061
-0.00025428,0.02601505220020248,1.50546347963438
-0.00025424,0.02566459161166298,1.505487076427854
-0.0002541999999999999,0.02661712551897656,1.505376958058314
-0.00025416,0.02667104253259811,1.505532696895235
-0.00025412,0.02619477557894101,1.505400554851786
-0.00025408,0.0269675861075167,1.505464266194163
-0.00025404,0.02672495954622012,1.505413139808305
-0.0002539999999999999,0.02570952245634832,1.505500447944155
-0.00025396,0.02645537447811189,1.505446961878949
-0.00025392,0.02638348512661647,1.505406847330046
-0.00025388,0.02693164143176899,1.505474491471335
-0.00025384,0.02819869125187335,1.505428084444171
-0.0002537999999999999,0.02692265526283219,1.50552797753654
-0.00025376,0.02699454461432748,1.505466625873511
-0.00025372,0.02790214767695708,1.505413926368087
-0.00025368,0.02654523616748115,1.505509886661544
-0.00025364,0.02734500520286616,1.505380104297443
-0.0002535999999999999,0.02762357643990785,1.505410780128958
-0.00025356,0.02515237998225751,1.505449321558298
-0.00025352,0.02680583506665203,1.505409207009393
-0.00025348,0.02556574375335614,1.505273132167032
-0.00025344,0.02619477557894101,1.505395835493091
-0.0002534,0.02652726382960668,1.505358867183316
-0.0002533599999999999,0.02576343946996853,1.505331337590932
-0.00025332,0.02583532882146395,1.505323471993108
-0.00025328,0.02692265526283207,1.505319539194195
-0.00025324,0.02661712551897656,1.505356507503969
-0.0002532,0.02569155011847479,1.505262906889861
-0.0002531599999999999,0.02587127349721085,1.505291223042028
-0.00025312,0.02543095121930224,1.505234590737693
-0.00025308,0.02610491388957174,1.5052566144116
-0.00025304,0.02531413102312218,1.505378531177877
-0.000253,0.02667104253259565,1.50539504893331
-0.0002529599999999999,0.025880259666151,1.50522043266161
-0.00025292,0.02721021266881372,1.505393475813743
-0.00025288,0.0270304892900752,1.50526919936812
-0.00025284,0.02656320850535501,1.505395048933309
-0.0002528,0.02701251695220051,1.505348641906145
-0.0002527599999999999,0.02711136481050465,1.505267626248554
-0.00025272,0.02552081290867151,1.505273132167032
-0.00025268,0.02738094987861533,1.505320325753978
-0.00025264,0.02716528182412909,1.505212567063785
-0.0002526,0.02640145746449033,1.505283357444203
-0.00025256,0.02694062760070494,1.505221219221392
-0.0002525199999999999,0.02661712551897656,1.505223578900739
-0.00025248,0.02708440630369673,1.505205488025743
-0.00025244,0.02677887655984123,1.50526919936812
-0.0002524,0.02608694155169789,1.505218072982262
-0.00025236,0.02671597337728161,1.505241669775735
-0.0002523199999999999,0.02620376174787777,1.505117393330111
-0.00025228,0.02611390005850867,1.505179531552923
-0.00025224,0.0257544533010316,1.505129978286629
-0.0002522,0.02570053628741003,1.505137057324671
-0.00025216,0.02613187239638173,1.505183464351835
-0.0002521199999999999,0.02608694155169746,1.505148855721408
-0.00025208,0.02585330115933779,1.505165373476839
-0.00025204,0.0251793384890683,1.505176385313794
-0.000252,0.0256196607669777,1.505177958433357
-0.00025196,0.02592519051083265,1.505135484205107
-0.0002519199999999999,0.0265362499985433,1.505173239074664
-0.00025188,0.02603302453807634,1.505135484205107
-0.00025184,0.02750675624373228,1.505077278781208
-0.0002518,0.02653624999854422,1.505066266944253
-0.00025176,0.02594316284870706,1.50512997828663
-0.0002517199999999999,0.02662611168791415,1.505026938955132
-0.0002516799999999999,0.02699454461432748,1.505168519715969
-0.00025164,0.02662611168791348,1.505217286422479
-0.0002516,0.0264284159713011,1.504975812569273
-0.00025156,0.02634754045086877,1.505113460531199
-0.00025152,0.02572749479422194,1.505083571259466
-0.0002514799999999999,0.02579938414571632,1.505078065340989
-0.00025144,0.02584431499040087,1.50497187977036
-0.0002514,0.02644638830917495,1.504973452889925
-0.00025136,0.02592519051083321,1.504949856096452
-0.00025132,0.02702150312113626,1.505050535748604
-0.0002512799999999999,0.0256915501184737,1.505007274960571
-0.00025124,0.02601505220020246,1.504993903444269
-0.0002512,0.02612288622744558,1.505020646476872
-0.00025116,0.02638348512661647,1.504977385688838
-0.00025112,0.02629362343724736,1.504956935134495
-0.0002510799999999999,0.02735399137180212,1.504895583471465
-0.00025104,0.02601505220020248,1.505015140558395
-0.000251,0.02555675758441923,1.504953788895365
-0.00025096,0.02731804669605683,1.504979745368185
-0.00025092,0.02659915318110271,1.504932551781239
-0.0002508799999999999,0.02553878524654568,1.504908168427983
-0.0002508399999999999,0.02570952245634696,1.504894796911683
-0.0002508,0.02605998304488712,1.504998622802963
-0.00025076,0.02587127349721165,1.504897943150813
-0.00025072,0.02557472992229306,1.504927045862763
-0.00025068,0.02647334681598409,1.50483895116713
-0.0002506399999999999,0.02664408402578735,1.504886931313858
-0.0002506,0.02635652661980568,1.504838164607347
-0.00025056,0.02664408402578734,1.504928618982327
-0.00025052,0.02636551278874263,1.504906595308419
-0.00025048,0.02632058194405808,1.504878279156252
-0.0002504399999999999,0.0263295681129971,1.504940417379064
-0.0002504,0.02754270091948001,1.504789397900837
-0.00025036,0.02650929149173343,1.504843670525825
-0.00025032,0.02567357778059925,1.504791757580184
-0.00025028,0.02554777141548252,1.504856255482343
-0.0002502399999999999,0.02730007435818091,1.504755575830192
-0.0002502,0.02615883090319332,1.504787824781272
-0.00025016,0.02608694155169789,1.504840524286695
-0.00025012,0.02671597337728275,1.504796476938878
-0.00025008,0.0245682790013612,1.504847603324737
-0.0002500399999999999,0.02658118084322605,1.5048224334117
-0.00025,0.0250445459550144,1.504801196297573
-0.00024996,0.02598809369339169,1.504957721694277
-0.00024992,0.02703947545901212,1.5047642279878
-0.00024988,0.02628463726831027,1.50484209740626
-0.00024984,0.02720122649987512,1.504777599504101
-0.0002497999999999999,0.02658118084322886,1.50471624784107
-0.00024976,0.02672495954621969,1.504813781254092
-0.00024972,0.02572749479422083,1.50471624784107
-0.00024968,0.02614085856531945,1.504778386063882
-0.00024964,0.02616781707213019,1.504695797286728
-0.0002495999999999999,0.02605099687595169,1.504772880145405
-0.00024956,0.02688671058708436,1.504669054254125
-0.00024952,0.02597910752445476,1.504769733906276
-0.00024948,0.02601505220020247,1.504595117634576
-0.00024944,0.02687772441814587,1.504654109618259
-0.0002493999999999999,0.02608694155169751,1.504769733906275
-0.00024936,0.02587127349721165,1.504672200493254
-0.00024932,0.0257903979767793,1.504663548335648
-0.00024928,0.02550284057079766,1.504673773612818
-0.00024924,0.02594316284870626,1.504737484955196
-0.0002491999999999999,0.02592519051083213,1.504675346732384
-0.00024916,0.02533210336099606,1.504587252036752
-0.00024912,0.02560168842910385,1.504754002710627
-0.00024908,0.02640145746449032,1.50468085265086
-0.00024904,0.02645537447811189,1.504697370406292
-0.0002489999999999999,0.02684177974239804,1.504650963379129
-0.0002489599999999999,0.02591620434189628,1.504659615536735
-0.00024892,0.02605099687595019,1.50459354451501
-0.00024888,0.02620376174787793,1.504702876324769
-0.00024884,0.02609592772063482,1.504566801482408
-0.0002488,0.02632058194405757,1.504784678542142
-0.0002487599999999999,0.02657219467429012,1.50463208594435
-0.00024872,0.02558371609123,1.504660402096518
-0.00024868,0.02717426799306601,1.504618714428049
-0.00024864,0.02600606603126554,1.504681639210643
-0.0002486,0.02617680324106684,1.504580172998711
-0.0002485599999999999,0.02590721817296009,1.504698943525857
-0.00024852,0.02631159577512105,1.504571520841104
-0.00024848,0.0253141310231222,1.504626580025874
-0.00024844,0.02654523616748115,1.504514888536768
-0.0002484,0.02515237998226005,1.504580959558492
-0.0002483599999999999,0.02629362343724528,1.504624220346526
-0.00024832,0.02524224167162678,1.504521967574809
-0.00024828,0.02617680324106715,1.504510169178074
-0.00024824,0.02649131915385958,1.504462189031345
-0.0002482,0.02688671058708434,1.504492078303078
-0.0002481599999999999,0.02624869259256425,1.504525900373722
-0.0002481199999999999,0.02718325416200294,1.504510955737856
-0.00024808,0.02570053628741004,1.504525900373722
-0.00024804,0.02526920017843756,1.504631299384568
-0.000248,0.02591620434189628,1.504453536873738
-0.00024796,0.02668002870153366,1.504538485330241
-0.0002479199999999999,0.02594316284870769,1.504552643406325
-0.00024788,0.02628463726831029,1.504515675096551
-0.00024784,0.025952149017644,1.504458256232432
-0.0002478,0.02611390005850866,1.50449601110199
-0.00024776,0.02517933848907,1.504455109993303
-0.0002477199999999999,0.02582634265252735,1.504444098156349
-0.00024768,0.02600606603126555,1.504453536873737
-0.00024764,0.02638348512661647,1.50440870296614
-0.0002476,0.02613187239638252,1.504486572384601
-0.00024756,0.02658118084322803,1.504363082498759
-0.0002475199999999999,0.0270215031211355,1.504547137487847
-0.00024748,0.02550284057079765,1.504453536873737
-0.00024744,0.02643740214023802,1.504538485330241
-0.0002474,0.02654523616748115,1.504445671275914
-0.00024736,0.02614085856531944,1.504326114188985
-0.0002473199999999999,0.02567357778059939,1.504462189031345
-0.0002472799999999999,0.02574546713209469,1.504423647602007
-0.00024724,0.02668002870153505,1.504478706786776
-0.0002472,0.02730906052711992,1.504381959933537
-0.00024716,0.02623970642362566,1.504497584221554
-0.00024712,0.02570053628741103,1.504411062645488
-0.0002470799999999999,0.02567357778059926,1.504459829351998
-0.00024704,0.0256556054427254,1.504442525036784
-0.000247,0.02486482257627587,1.504416568563964
-0.00024696,0.02604201070701324,1.504456683112869
-0.00024692,0.02718325416200087,1.504419714803095
-0.0002468799999999999,0.02721021266881398,1.504433872879177
-0.00024684,0.02736297754074147,1.50441184920527
-0.0002468,0.02653624999854422,1.504445671275914
-0.00024676,0.02623970642362564,1.504410276085705
-0.00024672,0.02722818500668578,1.504473200868299
-0.0002466799999999999,0.02579938414571736,1.504331620107462
-0.00024664,0.02641942980236418,1.504340272265069
-0.0002466,0.02588025966614858,1.504449604074825
-0.00024656,0.02589823200402244,1.504355216900934
-0.00024652,0.02685076591133491,1.50452511381394
-0.0002464799999999999,0.02636551278874217,1.504292292118341
-0.00024644,0.0261228862274456,1.504381173373756
-0.0002464,0.02602403836913941,1.50431824859116
-0.00024636,0.02559270226016692,1.504359149699847
-0.00024632,0.02546689589504994,1.504308023313989
-0.00024628,0.02583532882146328,1.504313529232465
-0.0002462399999999999,0.02658118084322885,1.504326114188984
-0.0002462,0.025215283164816,1.504369374977019
-0.00024616,0.02523325550268985,1.504337912585721
-0.00024612,0.02432565244006026,1.504457469672651
-0.00024608,0.02579938414571355,1.50431824859116
-0.0002460399999999999,0.02600606603126546,1.504422861042223
-0.000246,0.02595214901764399,1.504352070661806
-0.00024596,0.02564661927378848,1.504422074482441
-0.00024592,0.02658118084322887,1.504281280281386
-0.00024588,0.02552081290867345,1.5044283669607
-0.0002458399999999999,0.02600606603126679,1.504438592237872
-0.0002458,0.02668901487047198,1.504333193227026
-0.00024576,0.02687772441814743,1.504244311971612
-0.00024572,0.02655422233641807,1.504383533053102
-0.00024568,0.02747979773691983,1.504414208884617
-0.0002456399999999999,0.0265991531811008,1.504439378797654
-0.0002456,0.02555675758441922,1.504367801857453
-0.00024556,0.02673394571515661,1.504294651797688
-0.00024552,0.02744385306117382,1.504374094335714
-0.00024548,0.02671597337728274,1.504305663634641
-0.0002454399999999999,0.02722818500668541,1.504267908765085
-0.0002453999999999999,0.02604201070701326,1.504336339466157
-0.00024536,0.0266980010394089,1.504384319612885
-0.00024532,0.02591620434189628,1.504291505558558
-0.00024528,0.02544892355717611,1.504256110368348
-0.00024524,0.02641942980236241,1.504299371156382
-0.0002451999999999999,0.02531413102312613,1.504384319612884
-0.00024516,0.02747081156798459,1.504268695324866
-0.00024512,0.02609592772063481,1.50434105882485
-0.00024508,0.0269675861075167,1.504334766346591
-0.00024504,0.02664408402578792,1.504437019118307
-0.0002449999999999999,0.02723717117562437,1.504409489525922
-0.00024496,0.02716528182412907,1.504317462031378
-0.00024492,0.02659016701216577,1.504291505558557
-0.00024488,0.02663509785685042,1.504369374977019
-0.00024484,0.02685076591133627,1.504258470047695
-0.0002447999999999999,0.02678786272877897,1.504392185210708
-0.00024476,0.02722818500668758,1.504303303955294
-0.00024472,0.02727311585137221,1.504413422324834
-0.00024468,0.0250804906307621,1.5042985845966
-0.00024464,0.02692265526283206,1.504413422324835
-0.0002445999999999999,0.02695859993857684,1.504325327629202
-0.0002445599999999999,0.02535007569886989,1.504344991623763
-0.00024452,0.02605099687595017,1.504319035150943
-0.00024448,0.02729108818924606,1.504337126025939
-0.00024444,0.02516136615119445,1.504242738852046
-0.0002444,0.02507150446182534,1.504278920602038
-0.0002443599999999999,0.02655422233641678,1.504400837368316
-0.00024432,0.02584431499040088,1.504281280281386
-0.00024428,0.02627565109937334,1.504322181390073
-0.00024424,0.0258892458350855,1.504305663634641
-0.0002442,0.02662611168791216,1.504334766346591
-0.0002441599999999999,0.02612288622744589,1.504294651797687
-0.00024412,0.02628463726831028,1.504318248591161
-0.00024408,0.02645537447811189,1.504258470047695
-0.00024404,0.02685975208027359,1.50435364378137
-0.000244,0.02541297888143102,1.504241165732483
-0.0002439599999999999,0.02652726382960739,1.504245098531394
-0.00024392,0.02657219467429193,1.504392185210709
-0.00024388,0.0270664339658229,1.504293865237905
-0.00024384,0.0266980010394089,1.504283639960733
-0.0002438,0.02687772441814743,1.504264762525955
-0.0002437599999999999,0.02666205636365992,1.504273414683561
-0.00024372,0.02596113518658091,1.504283639960733
-0.00024368,0.0275067562437323,1.504313529232465
-0.00024364,0.02700353078326442,1.504228580775963
-0.0002436,0.02658118084322885,1.504334766346592
-0.00024356,0.02589823200402366,1.504267908765085
-0.0002435199999999999,0.02625767876149949,1.504208916781402
-0.00024348,0.02628463726831028,1.504190825906407
-0.00024344,0.02588025966614858,1.504255323808565
-0.0002434,0.02588924583508551,1.504316675471595
-0.00024336,0.02584431499040096,1.504168015672716
-0.0002433199999999999,0.02685076591133466,1.504215209259661
-0.00024328,0.02575445330103161,1.504267122205303
-0.00024324,0.02530514485418527,1.504150711357502
-0.0002432,0.02552081290867152,1.504256110368348
-0.00024316,0.0266440840257853,1.504273414683562
-0.0002431199999999999,0.02575445330103126,1.504330046987897
-0.00024308,0.02556574375335613,1.504311956112901
-0.00024304,0.02601505220020248,1.504325327629203
-0.000243,0.02362473126297999,1.50431824859116
-0.00024296,0.02605998304488267,1.504246671650959
-0.0002429199999999999,0.02598809369339183,1.504207343661838
-0.00024288,0.02606896921382404,1.504228580775963
-0.00024284,0.02576343946996853,1.50422779421618
-0.0002428,0.02598809369339169,1.504175094710758
-0.00024276,0.02617680324106716,1.504226221096616
-0.00024272,0.02677887655984014,1.50428285340095
-0.0002426799999999999,0.02672495954621967,1.504285999640081
-0.00024264,0.02618578941000408,1.504316675471595
-0.0002426,0.02635652661980568,1.50424352541183
-0.00024256,0.02637449895767953,1.504250604449871
-0.00024252,0.02611390005850915,1.504333193227027
-0.0002424799999999999,0.02723717117562262,1.504212063020533
-0.00024244,0.02620376174787793,1.504354430341152
-0.0002424,0.02605998304488711,1.504188466227059
-0.00024236,0.02658118084322885,1.504319035150943
-0.00024232,0.02743486689223532,1.504218355498791
-0.0002422799999999999,0.02710237864156951,1.504374880895495
-0.00024224,0.02650030532279651,1.50432454106942
-0.0002422,0.02664408402578734,1.504096438732514
-0.00024216,0.02618578941000408,1.504293078678121
-0.00024212,0.02641942980236375,1.504369374977018
-0.0002420799999999999,0.02605099687595087,1.504169588792281
-0.00024204,0.0264284159713011,1.504285213080298
-0.000242,0.02541297888142839,1.50427577436291
-0.00024196,0.02597910752445477,1.504320608270508
-0.00024192,0.0258173564835901,1.504317462031378
-0.0002418799999999999,0.02669800103940739,1.504262402846607
-0.0002418399999999999,0.02587127349721165,1.504200264623795
-0.0002418,0.02630260960618412,1.504340272265068
-0.00024176,0.02622173408575178,1.504278920602038
-0.00024172,0.02621274791681486,1.504305663634641
-0.00024168,0.02701251695219988,1.504334766346591
-0.0002416399999999999,0.02659016701216639,1.504311956112901
-0.0002416,0.02692265526283206,1.504268695324867
-0.00024156,0.02566459161166233,1.504343418504198
-0.00024152,0.02607795538276097,1.504294651797688
-0.00024148,0.02583532882146437,1.504352070661805
-0.0002414399999999999,0.02643740214023935,1.504310382993336
-0.0002414,0.02716528182412908,1.504303303955294
-0.00024136,0.02582634265252702,1.504178240949887
-0.00024132,0.02628463726831027,1.504311956112901
-0.00024128,0.02581735648359094,1.504316675471595
-0.0002412399999999999,0.02496367043458484,1.504331620107461
-0.0002412,0.02649131915385958,1.50432139483029
-0.00024116,0.0257544533010316,1.504306450194423
-0.00024112,0.02738993604755225,1.504245098531394
-0.00024108,0.02623072025468872,1.50431824859116
-0.0002410399999999999,0.02501758744820497,1.504348924422675
-0.0002409999999999999,0.02576343946996852,1.504361509379194
-0.00024096,0.02655422233641808,1.504476347107429
-0.00024092,0.02743486689223689,1.504315102352031
-0.00024088,0.02708440630369674,1.504313529232466
-0.00024084,0.02668901487047269,1.504201051183578
-0.0002407999999999999,0.02519731082694177,1.504344991623763
-0.00024076,0.02499062894139283,1.504314315792249
-0.00024072,0.02717426799306602,1.50429229211834
-0.00024068,0.0263655127887426,1.504251391009654
-0.00024064,0.02629362343724734,1.504316675471595
-0.0002405999999999999,0.02524224167162923,1.504322181390072
-0.00024056,0.02658118084322885,1.504234873254223
