SoundData250mm.csv

#Digilent WaveForms Oscilloscope Acquisition
#Device Name: Discovery3
#Serial Number: SN:210415BE893B
#Date Time: 2026-02-11 14:46:30.138.562.720
#Sample rate: 2.5e+07Hz
#Samples: 32768
#Trigger: Source: Wavegen C1 Condition: Rising
#Average: 100
#Channel 1: Range: 2 V/div Offset: 0 V Sample Mode: Average
#Channel 2: Range: 20 mV/div Offset: -1.5 V Sample Mode: Average
#Wavegen Channel 1: Running
#Mode: Simple
#Type: Pulse
#Frequency: 100 Hz
#Period: 10 ms
#Amplitude: 5 V
#Offset: 0 V
#Symmetry: 0.1 %
#Phase: 0 °
#Power Supplies: ON
#Positive Supply: ON
#Voltage: 3 V Readback: 3.003494475 V
#Negative Supply: OFF
#Voltage: -1 V

Time (s),Channel 1 (V),Channel 2 (V)
-0.00025536,0.02660813935003964,1.504745350553021
-0.00025532,0.02481989173159124,1.504742204313891
-0.0002552799999999999,0.02595214901764381,1.504768947346494
-0.0002552399999999999,0.0258533011593378,1.504752429591062
-0.0002552,0.026194775578941,1.50472254031933
-0.00025516,0.02599707986232861,1.504734338716066
-0.00025512,0.02626666493043642,1.504752429591063
-0.00025508,0.02658118084322828,1.504825579650828
-0.0002550399999999999,0.02607795538276159,1.50469658384651
-0.000255,0.02641942980236418,1.504665121455213
-0.00025496,0.02666205636366119,1.504597477313923
-0.00025492,0.02507150446182519,1.504683998889991
-0.00025488,0.02576343946996727,1.504734338716066
-0.0002548399999999999,0.0252242693337527,1.504700516645421
-0.0002548,0.02509846296863595,1.504718607520417
-0.00025476,0.02666205636366119,1.504637591862827
-0.00025472,0.02595214901764398,1.504736698395414
-0.00025468,0.0264823329849217,1.504676919851949
-0.0002546399999999999,0.02498164277245958,1.504701303205205
-0.0002546,0.02700353078326441,1.504540845009589
-0.00025456,0.02655422233641808,1.504766587667147
-0.00025452,0.02561067459804078,1.504614781629137
-0.00025448,0.02627565109937334,1.504755575830192
-0.0002544399999999999,0.0256376331048509,1.504646244020434
-0.0002543999999999999,0.02527818634737449,1.504689504808468
-0.00025436,0.02536804803674375,1.504811421574744
-0.00025432,0.02597910752445477,1.504605342911748
-0.00025428,0.02651827766067036,1.504698156966074
-0.00025424,0.0273180466960554,1.504704449444334
-0.0002541999999999999,0.0254848682329238,1.504733552156283
-0.00025416,0.02604201070701324,1.504577813319362
-0.00025412,0.02490076725202357,1.504588038596535
-0.00025408,0.02557472992229307,1.504747710232368
-0.00025404,0.02619477557893986,1.504697370406293
-0.0002539999999999999,0.02640145746448729,1.504597477313923
-0.00025396,0.02473901621115889,1.504768160786711
-0.00025392,0.02668901487047197,1.504691077928032
-0.00025388,0.02684177974239973,1.504716247841071
-0.00025384,0.02588924583508723,1.504835804928
-0.0002537999999999999,0.02553878524654594,1.504605342911748
-0.00025376,0.0258533011593378,1.504708382243247
-0.00025372,0.02599707986232861,1.504770520466059
-0.00025368,0.02515237998225751,1.504681639210644
-0.00025364,0.02494569809670859,1.504734338716066
-0.0002535999999999999,0.02576343946996779,1.504750069911715
-0.00025356,0.02535906186780682,1.50469658384651
-0.00025352,0.02515237998225751,1.504732765596501
-0.00025348,0.0253500756988699,1.504610062270443
-0.00025344,0.02472104387328504,1.504702089764987
-0.0002534,0.02475698854903267,1.504713888161723
-0.0002533599999999999,0.02455030666348344,1.504617927868267
-0.00025332,0.02579938414571623,1.504644670900869
-0.00025328,0.0257544533010316,1.504545564368283
-0.00025324,0.02712933714838138,1.504720967199766
-0.0002532,0.02491873958990145,1.504683998889991
-0.0002531599999999999,0.02481090556265804,1.504684785449774
-0.00025312,0.02686873824921051,1.50478389198236
-0.00025308,0.02603302453807632,1.504728832797589
-0.00025304,0.0253500756988699,1.504735911835631
-0.000253,0.02473003004222309,1.50459983699327
-0.0002529599999999999,0.02510744913757248,1.504683998889991
-0.00025292,0.02488279491414973,1.50472254031933
-0.00025288,0.02617680324106716,1.504644670900869
-0.00025284,0.02524224167162679,1.504708382243246
-0.0002528,0.02467611302860143,1.504709955362811
-0.0002527599999999999,0.02643740214023556,1.504683998889991
-0.00025272,0.02508049063076211,1.504655682737824
-0.00025268,0.02657219467429192,1.504632872504133
-0.00025264,0.02536804803674376,1.504534552531329
-0.0002526,0.02412795672344788,1.504540058449805
-0.00025256,0.02534108952993077,1.504610848830224
-0.0002525199999999999,0.02526021400950064,1.504508596058508
-0.00025248,0.02508947679969904,1.504684785449773
-0.00025244,0.02586228732827473,1.504608489150877
-0.0002524,0.02653624999854422,1.504676133292166
-0.00025236,0.02691366909389446,1.504619500987832
-0.0002523199999999999,0.02624869259256094,1.504665908014995
-0.00025228,0.02535906186780683,1.504647030580217
-0.00025224,0.02594316284870706,1.504636805303045
-0.0002522,0.02591620434189628,1.504679279531296
-0.00025216,0.02534108952993403,1.504653323058475
-0.0002521199999999999,0.02594316284870649,1.504730405917154
-0.00025208,0.02561966076697769,1.504665121455212
-0.00025204,0.02583532882146394,1.504692651047597
-0.000252,0.02622173408575178,1.504623433786744
-0.00025196,0.02655422233641747,1.504610062270442
-0.0002519199999999999,0.0258622873282758,1.50454792404763
-0.00025188,0.02645537447811187,1.504679279531296
-0.00025184,0.02593417667977013,1.504703662884553
-0.0002518,0.02549385440186074,1.504711528482376
-0.00025176,0.02544892355717609,1.504591184835663
-0.0002517199999999999,0.02490975342096193,1.504630512824786
-0.0002516799999999999,0.02570053628741005,1.504617141308484
-0.00025164,0.02698555844539057,1.504566801482409
-0.0002516,0.02725514351349834,1.50460612947153
-0.00025156,0.02680583506665203,1.504565228362843
-0.00025152,0.02595214901764554,1.504706022563899
-0.0002514799999999999,0.02502657361714197,1.504598263873706
-0.00025144,0.02580837031465316,1.504727259678025
-0.0002514,0.02714730948625523,1.504628939705221
-0.00025136,0.02652726382960728,1.504659615536736
-0.00025132,0.0248738087452158,1.504746923672585
-0.0002512799999999999,0.02603302453807852,1.504613995069355
-0.00025124,0.02724615734456142,1.504708382243246
-0.0002512,0.0251883246580052,1.504731192476937
-0.00025116,0.02510744913757288,1.504658042417171
-0.00025112,0.02646436064704634,1.50459275795523
-0.0002510799999999999,0.02662611168791175,1.504631299384567
-0.00025104,0.02567357778059926,1.504584892357405
-0.000251,0.02435261094687104,1.504573093960668
-0.00025096,0.02455929283242036,1.504647030580217
-0.00025092,0.02623072025468871,1.504669840813907
-0.0002508799999999999,0.02533210336099574,1.504605342911748
-0.0002508399999999999,0.02516136615119445,1.504633659063916
-0.0002508,0.02527818634737449,1.504684785449773
-0.00025076,0.02551182673973459,1.504499943900902
-0.00025072,0.02502657361714054,1.504657255857389
-0.00025068,0.02505353212395127,1.504540058449806
-0.0002506399999999999,0.02632956811299491,1.504763441428017
-0.0002506,0.02593417667977013,1.504750856471497
-0.00025056,0.0271023786415706,1.504552643406325
-0.00025052,0.02566459161166234,1.504668267694342
-0.00025048,0.02631159577511988,1.504593544515011
-0.0002504399999999999,0.02573648096315722,1.504776026384535
-0.0002504,0.0254489235571761,1.504552643406324
-0.00025036,0.02482887790052817,1.504583319237839
-0.00025032,0.02574546713209468,1.504591184835664
-0.00025028,0.02612288622744491,1.504614781629137
-0.0002502399999999999,0.025368048036744,1.504510169178074
-0.0002502,0.02550284057079765,1.504420501362877
-0.00025016,0.02524224167162679,1.504562868683496
-0.00025012,0.02641942980236418,1.504508596058508
-0.00025008,0.02552979907761006,1.504518034775898
-0.0002500399999999999,0.02556574375335763,1.504543204688936
-0.00025,0.02638348512661646,1.504604556351966
-0.00024996,0.0258892458350855,1.504692651047597
-0.00024992,0.02499961511032976,1.504456683112869
-0.00024988,0.02526920017843756,1.50464152466174
-0.00024984,0.02588025966614747,1.504697370406293
-0.0002497999999999999,0.02653624999854423,1.504639164982392
-0.00024976,0.02606896921382405,1.504687145129121
-0.00024972,0.02475698854903274,1.504507809498726
-0.00024968,0.02558371609122999,1.504607702591095
-0.00024964,0.02547588206398706,1.50455421652589
-0.0002495999999999999,0.0255477714154825,1.504588825156316
-0.00024956,0.02566459161166233,1.504533765971546
-0.00024952,0.02529615868524834,1.504610848830224
-0.00024948,0.02626666493043643,1.504614781629137
-0.00024944,0.02544892355717758,1.504493651422642
-0.0002493999999999999,0.02634754045086725,1.504530619732417
-0.00024936,0.02552081290867149,1.504494437982425
-0.00024932,0.02637449895767955,1.504663548335648
-0.00024928,0.02472104387328504,1.504591184835664
-0.00024924,0.02564661927378679,1.504643097781304
-0.0002491999999999999,0.02652726382960561,1.504450390634608
-0.00024916,0.02560168842910383,1.50450230358025
-0.00024912,0.02607795538276095,1.504591971395446
-0.00024908,0.02524224167162678,1.5046611886563
-0.00024904,0.02604201070701326,1.504584892357405
-0.0002489999999999999,0.0253590618678074,1.50449915734112
-0.0002489599999999999,0.02567357778059926,1.504731979036719
-0.00024892,0.02490076725202358,1.504543204688935
-0.00024888,0.02441551412942954,1.504746923672586
-0.00024884,0.0253141310231222,1.504713888161723
-0.0002488,0.02451436198773717,1.504629726265003
-0.0002487599999999999,0.0266350978568467,1.504674560172601
-0.00024872,0.02460422367710499,1.504681639210643
-0.00024868,0.02511643530650982,1.504668267694343
-0.00024864,0.02649131915385959,1.504642311221522
-0.0002486,0.02561966076697928,1.504516461656333
-0.0002485599999999999,0.02534108952993196,1.504537698770459
-0.00024852,0.02478394705584352,1.504496797661772
-0.00024848,0.02567357778059926,1.504637591862828
-0.00024844,0.02554777141548228,1.504504663259596
-0.0002484,0.02554777141548231,1.504700516645421
-0.0002483599999999999,0.02597012135551603,1.50469658384651
-0.00024832,0.02497265660351898,1.504747710232368
-0.00024828,0.02639247129555341,1.504625006906309
-0.00024824,0.02611390005850867,1.50465804241717
-0.0002482,0.0257185086252839,1.504673773612819
-0.0002481599999999999,0.02508947679970095,1.504743777433456
-0.0002481199999999999,0.02614984473425638,1.504648603699781
-0.00024808,0.02668901487047196,1.504750069911715
-0.00024804,0.02555675758441921,1.504660402096518
-0.000248,0.02577242563890545,1.504742990873673
-0.00024796,0.02625767876149862,1.504736698395414
-0.0002479199999999999,0.02463118218392077,1.504588825156316
-0.00024788,0.02738094987861532,1.504709168803029
-0.00024784,0.02584431499040087,1.504590398275881
-0.0002478,0.02435261094687104,1.504602196672618
-0.00024776,0.02575445330102905,1.504592757955229
-0.0002477199999999999,0.02645537447811078,1.504577813319362
-0.00024768,0.02584431499040086,1.504533765971547
-0.00024764,0.02614085856531944,1.50470287632477
-0.0002476,0.02542196505036531,1.504634445623698
-0.00024756,0.02596113518657992,1.504587252036752
-0.0002475199999999999,0.02570053628740679,1.504606916031313
-0.00024748,0.02391228866896164,1.504602196672619
-0.00024744,0.02562864693591463,1.504648603699781
-0.0002474,0.02584431499040087,1.504619500987832
-0.00024736,0.02598809369339168,1.504644670900869
-0.0002473199999999999,0.02453233432561133,1.504694224167162
-0.0002472799999999999,0.02549385440186073,1.504675346732384
-0.00024724,0.02628463726831028,1.504597477313924
-0.0002472,0.02468509919753734,1.504600623553053
-0.00024716,0.02615883090319331,1.504665121455212
-0.00024712,0.0253770342056821,1.504717820960636
-0.0002470799999999999,0.02566459161166235,1.504498370781336
-0.00024704,0.02620376174787793,1.50469343760738
-0.000247,0.02623072025468871,1.504497584221554
-0.00024696,0.02622173408575177,1.504580959558492
-0.00024692,0.02526920017843929,1.504578599879144
-0.0002468799999999999,0.02549385440186187,1.504636018743263
-0.00024684,0.02612288622744559,1.504658828976953
-0.0002468,0.02582634265252701,1.504540845009588
-0.00024676,0.02568256394953618,1.504639164982392
-0.00024672,0.025601688429104,1.504532192851982
-0.0002466799999999999,0.02628463726831212,1.504772880145405
-0.00024664,0.02730007435818298,1.504636805303045
-0.0002466,0.02641942980236418,1.504639951542175
-0.00024656,0.02458625133923114,1.504599836993271
-0.00024652,0.02635652661980247,1.504683998889991
-0.0002464799999999999,0.02508049063076028,1.504517248216115
-0.00024644,0.02408302587876325,1.504614781629136
-0.0002464,0.02556574375335614,1.504662761775865
-0.00024636,0.02619477557894101,1.504603769792183
-0.00024632,0.0256196607669777,1.504591184835664
-0.00024628,0.02516136615119528,1.504543991248718
-0.0002462399999999999,0.02632058194405797,1.504601410112835
-0.0002462,0.02573648096315774,1.504646244020434
-0.00024616,0.02547588206398688,1.50464781714
-0.00024612,0.02547588206398687,1.504649390259565
-0.00024608,0.02535906186780705,1.504606916031312
-0.0002460399999999999,0.02536804803674587,1.50467062737369
-0.000246,0.02653624999854422,1.504682425770427
-0.00024596,0.02538602037461761,1.504709168803029
-0.00024592,0.02567357778059927,1.504651749938911
-0.00024588,0.02513440764438464,1.504650176819346
-0.0002458399999999999,0.02436159711580993,1.504747710232367
-0.0002458,0.02543993738823918,1.504613208509572
-0.00024576,0.02457726517029421,1.504688718248686
-0.00024572,0.02580837031465316,1.504637591862827
-0.00024568,0.02598809369339137,1.504717034400853
-0.0002456399999999999,0.02604201070701438,1.504695010726944
-0.0002456,0.02666205636366121,1.504608489150878
-0.00024556,0.02535007569886989,1.504599836993271
-0.00024552,0.02583532882146393,1.504684785449774
-0.00024548,0.02502657361714055,1.504638378422609
-0.0002454399999999999,0.0246761130286021,1.50469973008564
-0.0002453999999999999,0.02561067459804077,1.504684785449774
-0.00024536,0.02619477557894101,1.504706022563899
-0.00024532,0.02617680324106716,1.504630512824785
-0.00024528,0.02557472992229306,1.504733552156284
-0.00024524,0.02587127349721111,1.504625006906308
-0.0002451999999999999,0.02674293188409313,1.504598263873706
-0.00024516,0.02652726382960731,1.504729619357372
-0.00024512,0.02668901487047197,1.504730405917154
-0.00024508,0.02651827766067037,1.504680066091079
-0.00024504,0.02683279357346223,1.504756362389974
-0.0002449999999999999,0.02624869259256183,1.504642311221523
-0.00024496,0.02584431499040086,1.504795690379096
-0.00024492,0.0257544533010316,1.504811421574745
-0.00024488,0.02619477557894101,1.504815354373657
-0.00024484,0.02630260960618392,1.504558935884584
-0.0002447999999999999,0.02672495954621671,1.504684785449774
-0.00024476,0.02509846296863595,1.504726473118242
-0.00024472,0.02680583506665201,1.504687145129121
-0.00024468,0.02621274791681488,1.504744563993239
-0.00024464,0.02546689589504994,1.504650963379128
-0.0002445999999999999,0.0262127479168149,1.504691864487815
-0.0002445599999999999,0.0262307202546887,1.504709955362812
-0.00024452,0.02556574375335614,1.504543991248718
-0.00024448,0.02666205636366119,1.504793330699749
-0.00024444,0.0262936234372472,1.50472883279759
-0.0002444,0.02534108952993471,1.504672200493254
-0.0002443599999999999,0.02562864693591366,1.504724899998677
-0.00024432,0.02509846296863597,1.504669054254125
-0.00024428,0.02487380874521279,1.504703662884551
-0.00024424,0.02589823200402242,1.504577026759581
-0.0002442,0.02548486823292456,1.504747710232368
-0.0002441599999999999,0.02464016835285554,1.504775239824753
-0.00024412,0.02620376174787793,1.504711528482376
-0.00024408,0.02453233432560958,1.504739844634543
-0.00024404,0.02552979907760844,1.504776812944318
-0.000244,0.02561067459804064,1.504773666705188
-0.0002439599999999999,0.02606896921382347,1.504698943525858
-0.00024392,0.0257544533010316,1.504802769417138
-0.00024388,0.02550284057079766,1.504762654868234
-0.00024384,0.02605998304488712,1.504740631194326
-0.0002438,0.02621274791681487,1.504781532303013
-0.0002437599999999999,0.02490076725202315,1.504739844634544
-0.00024372,0.02466712685966347,1.504838164607347
-0.00024368,0.02613187239638252,1.504758722069322
-0.00024364,0.02590721817295936,1.50472568655846
-0.0002436,0.02465814069072655,1.504897943150812
-0.00024356,0.02577242563890342,1.504695010726946
-0.0002435199999999999,0.02635652661980568,1.504807488775833
-0.00024348,0.02613187239638252,1.50480355597692
-0.00024344,0.02543993738823918,1.504765801107364
-0.0002434,0.02480191939371738,1.504813781254093
-0.00024336,0.0248198917315912,1.504875919476903
-0.0002433199999999999,0.02520629699588018,1.504831085569305
-0.00024328,0.02580837031465317,1.504739844634543
-0.00024324,0.02661712551897657,1.504872773237774
-0.0002432,0.02673394571515661,1.504698943525857
-0.00024316,0.02530514485418787,1.504916034025809
-0.0002431199999999999,0.02526920017843895,1.504687145129121
-0.00024308,0.02603302453807632,1.504769733906275
-0.00024304,0.0257185086252839,1.504729619357372
-0.000243,0.02551182673973458,1.504822433411699
-0.00024296,0.0267519180530282,1.504894796911683
-0.0002429199999999999,0.02643740214023751,1.504728046237807
-0.00024288,0.02614984473425638,1.504862547960603
-0.00024284,0.02539500654355453,1.504860188281256
-0.0002428,0.02729108818924605,1.504843670525824
-0.00024276,0.02533210336099604,1.504860188281255
-0.00024272,0.02559270226016643,1.504734338716066
-0.0002426799999999999,0.02612288622744558,1.504786251661707
-0.00024264,0.02631159577512106,1.504878279156252
-0.0002426,0.02595214901764397,1.504882211955163
-0.00024256,0.02556574375335614,1.504869626998645
-0.00024252,0.02614085856531841,1.50484209740626
-0.0002424799999999999,0.02552081290867205,1.504983678167098
-0.00024244,0.02582634265252702,1.504975812569274
-0.0002424,0.02676989039090432,1.504915247466025
-0.00024236,0.0260599830448871,1.504938057699716
-0.00024232,0.02548486823292484,1.504936484580151
-0.0002422799999999999,0.02487380874521277,1.504985251286663
-0.00024224,0.02485583640733894,1.504826366210611
-0.0002422,0.02652726382960728,1.504913674346461
-0.00024216,0.0261588309031933,1.50495850825406
-0.00024212,0.02420883224388378,1.504943563618193
-0.0002420799999999999,0.02535007569887063,1.504901875949724
-0.00024204,0.02574546713209467,1.504802769417137
-0.000242,0.02533210336099605,1.504925472743198
-0.00024196,0.0244334864673034,1.504927832422545
-0.00024192,0.02567357778059926,1.504873559797557
-0.0002418799999999999,0.02632956811299595,1.504914460906243
-0.0002418399999999999,0.02691366909389513,1.504953002335582
-0.0002418,0.02560168842910385,1.504973452889926
-0.00024176,0.02607795538276097,1.50490030283016
-0.00024172,0.02478394705584351,1.505020646476871
-0.00024168,0.02479293322478044,1.504994690004052
-0.0002416399999999999,0.02586228732827495,1.505001769042093
-0.0002416,0.02598809369339169,1.504886931313857
-0.00024156,0.02595214901764399,1.504942777058411
-0.00024152,0.02611390005850867,1.504939630819282
-0.00024148,0.02671597337728166,1.504930192101893
-0.0002414399999999999,0.02625767876149695,1.504995476563834
-0.0002414,0.02485583640733894,1.505005701841006
-0.00024136,0.0255208129086715,1.5050686266236
-0.00024132,0.02554777141548228,1.504949069536671
-0.00024128,0.02644638830917333,1.504976599129056
-0.0002412399999999999,0.0256376331048521,1.504984464726879
-0.0002412,0.02594316284870706,1.50497187977036
-0.00024116,0.02480191939371737,1.504960081373624
-0.00024112,0.02579938414571624,1.505011994319265
-0.00024108,0.02721919883775064,1.504921539944285
-0.0002410399999999999,0.02620376174787834,1.505091436857291
-0.0002409999999999999,0.02642841597130111,1.505146496042061
-0.00024096,0.02700353078326439,1.505143349802931
-0.00024092,0.02720122649987679,1.505137843884454
-0.00024088,0.02556574375335614,1.505134697645324
-0.00024084,0.02624869259256132,1.505013567438831
-0.0002407999999999999,0.0256196607669789,1.505154361639884
-0.00024076,0.02627565109937334,1.504967160411666
-0.00024072,0.02738094987861533,1.505070986302948
-0.00024068,0.02571850862528388,1.504989184085574
-0.00024064,0.02550284057079805,1.505098515895333
-0.0002405999999999999,0.02523325550269175,1.504953788895366
-0.00024056,0.02627565109937336,1.50503323143339
